…
**[1. 정렬]**     

```arrange(data,a,b,c)```      

* **data**: 정렬할 데이터 이름    
* **a,b,c**: 정렬 기준   


```
#year, month, day에 대한 정렬
arrange(flights, year, month, day)
```
```
## # A tibble: 336,776 x 19
## year month   day dep_time sched_dep_time dep_delay arr_time sched_arr_time
##    <int> <int> <int>    <int>          <int>     <dbl>    <int>          <int>
##  1  2013     1     1      517            515         2      830            819
##  2  2013     1     1      533            529         4      850            830
##  3  2013     1     1      542            540         2      923            850
##  4  2013     1     1      544            545        -1     1004           1022
##  5  2013     1     1      554            600        -6      812            837
##  6  2013     1     1      554            558        -4      740            728
##  7  2013     1     1      555            600        -5      913            854
##  8  2013     1     1      557            600        -3      709            723
##  9  2013     1     1      557            600        -3      838            846
## 10  2013     1     1      558            600        -2      753            745
## # … with 336,766 more rows, and 11 more variables: arr_delay <dbl>,
## #   carrier <chr>, flight <int>, tailnum <chr>, origin <chr>, dest <chr>,
## #   air_time <dbl>, distance <dbl>, hour <dbl>, minute <dbl>, time_hour <dttm>
```
**[2. 역순정렬(내림차순)]**     
```arrange(data, desc(a))```        
* desc(a): a에 대한 역순정렬(내림차순)   
   
``` 
# arr_delay에 대한 역순정렬(내림차순)
arrange(flights, desc(arr_delay))
``` 
``` 
# # A tibble: 336,776 x 19
##  year month   day dep_time sched_dep_time dep_delay arr_time sched_arr_time
##    <int> <int> <int>    <int>          <int>     <dbl>    <int>          <int>
##  1  2013     1     9      641            900      1301     1242           1530
##  2  2013     6    15     1432           1935      1137     1607           2120
##  3  2013     1    10     1121           1635      1126     1239           1810
##  4  2013     9    20     1139           1845      1014     1457           2210
##  5  2013     7    22      845           1600      1005     1044           1815
##  6  2013     4    10     1100           1900       960     1342           2211
##  7  2013     3    17     2321            810       911      135           1020
##  8  2013     7    22     2257            759       898      121           1026
##  9  2013    12     5      756           1700       896     1058           2020
## 10  2013     5     3     1133           2055       878     1250           2215
## # … with 336,766 more rows, and 11 more variables: arr_delay <dbl>,
## #   carrier <chr>, flight <int>, tailnum <chr>, origin <chr>, dest <chr>,
## #   air_time <dbl>, distance <dbl>, hour <dbl>, minute <dbl>, time_hour <dttm>
``` 
…
## select()
추출하는 함수     

**[1. 추출]**   
``` select(data, a, b, c)```      
*  **a, b, c**: a, b, c 열을 추출 
   
```
# year, month, day 열을 추출
select(flights, year, month, day)
```
```
## # A tibble: 336,776 x 3
##     year month   day
##    <int> <int> <int>
##  1  2013     1     1
##  2  2013     1     1
##  3  2013     1     1
##  4  2013     1     1
##  5  2013     1     1
##  6  2013     1     1
##  7  2013     1     1
##  8  2013     1     1
##  9  2013     1     1
## 10  2013     1     1
## # … with 336,766 more rows
```

**[2. 슬라이싱 추출]**     
```select(data, a:c)```      
*  **a:c**: a~c 열을 추출 

```
# year부터 day까지 추출
select(flights, year:day)
```
```
## # A tibble: 336,776 x 3
##     year month   day
##    <int> <int> <int>
##  1  2013     1     1
##  2  2013     1     1
##  3  2013     1     1
##  4  2013     1     1
##  5  2013     1     1
##  6  2013     1     1
##  7  2013     1     1
##  8  2013     1     1
##  9  2013     1     1
## 10  2013     1     1
## # … with 336,766 more rows
```

**[3. 제외 후 추출]**     
```select(data, -(a:b))```    
* **-(a:b)**: a에서 b까지 를 빼고 추출    
* **‘-’**: column 제외    

```
# year 부터 flight까지 열 제외
select(flights, -(year:flight))
```
```
## # A tibble: 336,776 x 8
##    tailnum origin dest  air_time distance  hour minute time_hour          
##    <chr>   <chr>  <chr>    <dbl>    <dbl> <dbl>  <dbl> <dttm>             
##  1 N14228  EWR    IAH        227     1400     5     15 2013-01-01 05:00:00
##  2 N24211  LGA    IAH        227     1416     5     29 2013-01-01 05:00:00
##  3 N619AA  JFK    MIA        160     1089     5     40 2013-01-01 05:00:00
##  4 N804JB  JFK    BQN        183     1576     5     45 2013-01-01 05:00:00
##  5 N668DN  LGA    ATL        116      762     6      0 2013-01-01 06:00:00
##  6 N39463  EWR    ORD        150      719     5     58 2013-01-01 05:00:00
##  7 N516JB  EWR    FLL        158     1065     6      0 2013-01-01 06:00:00
##  8 N829AS  LGA    IAD         53      229     6      0 2013-01-01 06:00:00
##  9 N593JB  JFK    MCO        140      944     6      0 2013-01-01 06:00:00
## 10 N3ALAA  LGA    ORD        138      733     6      0 2013-01-01 06:00:00
## # … with 336,766 more rows
```
…
---

## mutate()함수
새로 변수를 만드는 함수        

**[1, 열 추가]**      
```transmute(data, a= calcau1, b=calcau2)```     
* **a=, b=**: 새로 추가할 열 이름      
* **calcau11,calcau12**: 새로 추가할 열 연산     
 
```
transmute(flights, gain = arr_delay - dep_delay, speed = distance / air_time * 60)
```
```
## # A tibble: 336,776 x 2
##     gain speed
##    <dbl> <dbl>
##  1     9  370.
##  2    16  374.
##  3    31  408.
##  4   -17  517.
##  5   -19  394.
##  6    16  288.
##  7    24  404.
##  8   -11  259.
##  9    -5  405.
## 10    10  319.
## # … with 336,766 more rows
```
…
